[ Menu Source file v0.0.2. Do not delete this line. Level Selection UI ]
_MENUNAME_: '2';
_OBJ0_ : r1='Resources\Misc\banner-levelselection.png', x='0', y='0', action='background';
_OBJ1_ : r1='Resources\Buttons\04_0.png', x='15', y='800', action='main-menu';