[ Menu Source file v0.0.2. Do not delete this line. Profile menu. ]
_MENUNAME_: '5';
_OBJ0_ : r1='Resources\Misc\banner-menu.png', x='0', y='0', action='background';
_OBJ1_ : r1='Resources\Misc\profile-item.png', x='425', y='73', action='profile-select';
_OBJ2_ : r1='Resources\Misc\profile-item.png', x='425', y='238', action='profile-select';
_OBJ3_ : r1='Resources\Misc\profile-item.png', x='425', y='396', action='profile-select';
_OBJ4_ : r1='Resources\Misc\profile-item.png', x='425', y='556', action='profile-select';
_OBJ5_ : r1='Resources\Misc\profile-item.png', x='425', y='724', action='profile-select';
_OBJ6_ : r1='Resources\Buttons\04_0.png', x='15', y='850', action='main-menu';
_OBJ7_ : r1='Resources\Misc\no-profiles-detected-message.png', x='49', y='345', action='no-profiles-detected-message';